%YAML 1.1
%TAG !u! tag:unity3d.com,2011:
--- !u!114 &11400000
MonoBehaviour:
  m_ObjectHideFlags: 0
  m_CorrespondingSourceObject: {fileID: 0}
  m_PrefabInstance: {fileID: 0}
  m_PrefabAsset: {fileID: 0}
  m_GameObject: {fileID: 0}
  m_Enabled: 1
  m_EditorHideFlags: 0
  m_Script: {fileID: 11500000, guid: bbb281ee3bf0b054c82ac2347e9e782c, type: 3}
  m_Name: Scenes
  m_EditorClassIdentifier: 
  m_GroupName: Scenes
  m_Data:
    m_SerializedData: []
  m_GUID: 273ce32abc05c449faafba57bc6738ca
  m_SerializeEntries:
  - m_GUID: c66004296851b43989ec06411101bb2b
    m_Address: Assets/Scenes/Gameplay/Environment.unity
    m_ReadOnly: 0
    m_SerializedLabels: []
    m_MainAsset: {fileID: 102900000, guid: c66004296851b43989ec06411101bb2b, type: 3}
    m_TargetAsset: {fileID: 102900000, guid: c66004296851b43989ec06411101bb2b, type: 3}
  - m_GUID: e728621947cea4ab7a8870c74cec3684
    m_Address: Assets/Scenes/Gameplay/UI.unity
    m_ReadOnly: 0
    m_SerializedLabels: []
    m_MainAsset: {fileID: 102900000, guid: e728621947cea4ab7a8870c74cec3684, type: 3}
    m_TargetAsset: {fileID: 102900000, guid: e728621947cea4ab7a8870c74cec3684, type: 3}
  - m_GUID: 73671e0dcba404902af5d86306f47de0
    m_Address: Assets/Scenes/Gameplay/Player.unity
    m_ReadOnly: 0
    m_SerializedLabels: []
    m_MainAsset: {fileID: 102900000, guid: 73671e0dcba404902af5d86306f47de0, type: 3}
    m_TargetAsset: {fileID: 102900000, guid: 73671e0dcba404902af5d86306f47de0, type: 3}
  - m_GUID: 439475a05b3264ecebe352499feeac3b
    m_Address: Assets/Scenes/Gameplay/Moveable.unity
    m_ReadOnly: 0
    m_SerializedLabels: []
    m_MainAsset: {fileID: 102900000, guid: 439475a05b3264ecebe352499feeac3b, type: 3}
    m_TargetAsset: {fileID: 102900000, guid: 439475a05b3264ecebe352499feeac3b, type: 3}
  m_ReadOnly: 0
  m_Settings: {fileID: 11400000, guid: 66b95e67548f64a359e487d11fe73c1c, type: 2}
  m_SchemaSet:
    m_Schemas:
    - {fileID: 11400000, guid: 033257a750cec4812b08d608b7e24f64, type: 2}
    - {fileID: 11400000, guid: 790ac4cad66b64febb389d8503e7b875, type: 2}
