%YAML 1.1
%TAG !u! tag:unity3d.com,2011:
--- !u!1045 &1
EditorBuildSettings:
  m_ObjectHideFlags: 0
  serializedVersion: 2
  m_Scenes:
  - enabled: 1
    path: Assets/Scenes/Gameplay/EntryPoint.unity
    guid: 762b3dd63cf884da19362d07c08f9bbc
  m_configObjects:
    com.unity.addressableassets: {fileID: 11400000, guid: f245f1e53dbbf47c4a6a86d5c3765f3e, type: 2}
