%YAML 1.1
%TAG !u! tag:unity3d.com,2011:
--- !u!114 &11400000
MonoBehaviour:
  m_ObjectHideFlags: 0
  m_CorrespondingSourceObject: {fileID: 0}
  m_PrefabInstance: {fileID: 0}
  m_PrefabAsset: {fileID: 0}
  m_GameObject: {fileID: 0}
  m_Enabled: 1
  m_EditorHideFlags: 0
  m_Script: {fileID: 11500000, guid: 468a46d0ae32c3544b7d98094e6448a9, type: 3}
  m_Name: AddressableAssetSettings
  m_EditorClassIdentifier: 
  m_DefaultGroup: b61e880713e994d2caeeab2acb1e9e5e
  m_OptimizeCatalogSize: 0
  m_BuildRemoteCatalog: 0
  m_BundleLocalCatalog: 0
  m_DisableCatalogUpdateOnStart: 0
  m_IgnoreUnsupportedFilesInBuild: 0
  m_UniqueBundleIds: 0
  m_maxConcurrentWebRequests: 500
  m_ContiguousBundles: 0
  m_RemoteCatalogBuildPath:
    m_Id: 
  m_RemoteCatalogLoadPath:
    m_Id: 
  m_overridePlayerVersion: 
  m_GroupAssets:
  - {fileID: 11400000, guid: 283d7e82b08b141d8bb3babc05687cd9, type: 2}
  - {fileID: 11400000, guid: f32d7c993dc2540b080468aa4957e986, type: 2}
  - {fileID: 11400000, guid: ac581de69275d4e96a5c5b48d1329843, type: 2}
  - {fileID: 11400000, guid: 5315cf74cf6004434b7d18c8fe5bee60, type: 2}
  m_BuildSettings:
    m_CompileScriptsInVirtualMode: 0
    m_CleanupStreamingAssetsAfterBuilds: 1
    m_LogResourceManagerExceptions: 1
    m_BundleBuildPath: Temp/com.unity.addressables/AssetBundles
  m_ProfileSettings:
    m_Profiles:
    - m_InheritedParent: 
      m_Id: 202464f8f8ad64b99a0a715a08898be6
      m_ProfileName: Default
      m_Values:
      - m_Id: 338d843337b08433aafb38113f900254
        m_Value: '[UnityEditor.EditorUserBuildSettings.activeBuildTarget]'
      - m_Id: 2476eda94f3e046668c0a40843eaf0e1
        m_Value: '[UnityEngine.AddressableAssets.Addressables.BuildPath]/[BuildTarget]'
      - m_Id: 3f0c3af7eca5640e7a1143490c1592a3
        m_Value: '{UnityEngine.AddressableAssets.Addressables.RuntimePath}/[BuildTarget]'
      - m_Id: b6c1af7b7e5a24d47a79f80d5554cedf
        m_Value: ServerData/[BuildTarget]
      - m_Id: a9131c78d079d45fe8847f745508806f
        m_Value: http://localhost/[BuildTarget]
    m_ProfileEntryNames:
    - m_Id: 338d843337b08433aafb38113f900254
      m_Name: BuildTarget
      m_InlineUsage: 0
    - m_Id: 2476eda94f3e046668c0a40843eaf0e1
      m_Name: LocalBuildPath
      m_InlineUsage: 0
    - m_Id: 3f0c3af7eca5640e7a1143490c1592a3
      m_Name: LocalLoadPath
      m_InlineUsage: 0
    - m_Id: b6c1af7b7e5a24d47a79f80d5554cedf
      m_Name: RemoteBuildPath
      m_InlineUsage: 0
    - m_Id: a9131c78d079d45fe8847f745508806f
      m_Name: RemoteLoadPath
      m_InlineUsage: 0
    m_ProfileVersion: 1
  m_LabelTable:
    m_LabelNames:
    - default
    - uniqueItem
    - colorCodedItem
  m_SchemaTemplates: []
  m_GroupTemplateObjects:
  - {fileID: 11400000, guid: 87f2605c889714e2a983d53aaa9ed996, type: 2}
  m_InitializationObjects: []
  m_CertificateHandlerType:
    m_AssemblyName: 
    m_ClassName: 
  m_ActivePlayerDataBuilderIndex: 3
  m_DataBuilders:
  - {fileID: 11400000, guid: 65881aeea8dff472f997fa72e6ce9801, type: 2}
  - {fileID: 11400000, guid: 06f564f2ae72e40adb977802c5201870, type: 2}
  - {fileID: 11400000, guid: 64299e0e86ef1408e8bff8a3af4ef314, type: 2}
  - {fileID: 11400000, guid: 945c22575575b4fe2b9d27ed17ff72d9, type: 2}
  m_ActiveProfileId: 202464f8f8ad64b99a0a715a08898be6
  m_HostingServicesManager:
    m_HostingServiceInfos: []
    m_Settings: {fileID: 11400000}
    m_NextInstanceId: 0
    m_RegisteredServiceTypeRefs: []
